{
    "urls": [
        {
            "url": "http://9xi4o.tk/0725.json",
            "name": "小歪"
        },
        {
            "url": "https://mirror.ghproxy.com/https://raw.githubusercontent.com/samisold/TvboxJarMod/main/conf/fan.json",
            "name": "饭太硬备份"
        },
        {
            "url": "https://notabug.org/XGY/KTV/raw/master/123.json",
            "name": "线路1"
        },
        {
            "url": "https://cdn.jsdelivr.net/gh/liu673cn/box@main/m.json",
            "name": "线路2"
        }
    ]
}